0:0:0:0:0:0:0:1 - - [18/Oct/2018:22:07:19 +0530] "GET / HTTP/1.1" 200 11217
0:0:0:0:0:0:0:1 - - [18/Oct/2018:22:07:19 +0530] "GET /tomcat.css HTTP/1.1" 200 5581
0:0:0:0:0:0:0:1 - - [18/Oct/2018:22:07:19 +0530] "GET /tomcat.png HTTP/1.1" 200 5103
0:0:0:0:0:0:0:1 - - [18/Oct/2018:22:07:19 +0530] "GET /bg-nav.png HTTP/1.1" 200 1401
0:0:0:0:0:0:0:1 - - [18/Oct/2018:22:07:19 +0530] "GET /bg-button.png HTTP/1.1" 200 713
0:0:0:0:0:0:0:1 - - [18/Oct/2018:22:07:19 +0530] "GET /asf-logo-wide.svg HTTP/1.1" 200 27235
0:0:0:0:0:0:0:1 - - [18/Oct/2018:22:07:19 +0530] "GET /bg-upper.png HTTP/1.1" 200 3103
0:0:0:0:0:0:0:1 - - [18/Oct/2018:22:07:19 +0530] "GET /bg-middle.png HTTP/1.1" 200 1918
0:0:0:0:0:0:0:1 - - [18/Oct/2018:22:07:20 +0530] "GET /favicon.ico HTTP/1.1" 200 21630
0:0:0:0:0:0:0:1 - - [18/Oct/2018:22:13:46 +0530] "GET / HTTP/1.1" 200 11217
0:0:0:0:0:0:0:1 - - [18/Oct/2018:22:29:59 +0530] "GET / HTTP/1.1" 200 11217
0:0:0:0:0:0:0:1 - - [18/Oct/2018:22:31:32 +0530] "GET / HTTP/1.1" 200 11217
127.0.0.1 - - [18/Oct/2018:22:49:29 +0530] "GET /VehicleManagement/test.jsp HTTP/1.1" 404 1003
127.0.0.1 - - [18/Oct/2018:22:49:32 +0530] "GET /VehicleManagement/index.jsp HTTP/1.1" 404 1005
